verilog/tb/sarcon_tb.vcd
$date
	Sun Dec 11 15:40:49 2022
$end
$version
	Icarus Verilog
$end
$timescale
	1ps
$end
$scope module sarcon_tb $end
$var wire 1 ! valid $end
$var wire 1 " latch_en $end
$var wire 12 # dq [11:0] $end
$var wire 1 $ comp $end
$var reg 12 % dq_result_r [11:0] $end
$var reg 1 & rst_n $end
$var reg 1 ' rst_sync_n $end
$var reg 1 ( tb_clk_r $end
$var real 1 ) dac_out $end
$var real 1 * target $end
$var real 1 + x $end
$scope module u_DUT $end
$var wire 1 ( clk $end
$var wire 1 , comp $end
$var wire 12 - dq [11:0] $end
$var wire 1 . rst_n $end
$var wire 1 ! valid $end
$var wire 1 " last_cycle $end
$var reg 12 / dr [11:0] $end
$var reg 12 0 sr [11:0] $end
$var reg 12 1 sr_dly [11:0] $end
$scope begin gen_datareg[0] $end
$upscope $end
$scope begin gen_datareg[1] $end
$upscope $end
$scope begin gen_datareg[2] $end
$upscope $end
$scope begin gen_datareg[3] $end
$upscope $end
$scope begin gen_datareg[4] $end
$upscope $end
$scope begin gen_datareg[5] $end
$upscope $end
$scope begin gen_datareg[6] $end
$upscope $end
$scope begin gen_datareg[7] $end
$upscope $end
$scope begin gen_datareg[8] $end
$upscope $end
$scope begin gen_datareg[9] $end
$upscope $end
$scope begin gen_datareg[10] $end
$upscope $end
$scope begin gen_datareg[11] $end
$upscope $end
$upscope $end
$upscope $end
$enddefinitions $end
#0
$dumpvars
bx 1
bx 0
bx /
x.
bx -
1,
r0 +
r0.5 *
r0 )
0(
x'
1&
bx %
0$
bx #
x"
z!
$end
#10000
0.
0&
#50000
0"
b0 #
b0 -
b0 /
b0 1
b100000000000 0
0'
1(
#100000
0(
#110000
1.
1&
#150000
r0.5 )
1'
b100000000000 1
b10000000000 0
b100000000000 #
b100000000000 -
b100000000000 /
1(
#200000
0(
#250000
0,
1$
r0.75 )
b110000000000 #
b110000000000 -
b110000000000 /
b10000000000 1
b1000000000 0
1(
#300000
0(
#350000
r0.625 )
b1000000000 1
b100000000 0
b101000000000 #
b101000000000 -
b101000000000 /
1(
#400000
0(
#450000
r0.5625 )
b100100000000 #
b100100000000 -
b100100000000 /
b100000000 1
b10000000 0
1(
#500000
0(
#550000
r0.53125 )
b10000000 1
b1000000 0
b100010000000 #
b100010000000 -
b100010000000 /
1(
#600000
0(
#650000
r0.515625 )
b100001000000 #
b100001000000 -
b100001000000 /
b1000000 1
b100000 0
1(
#700000
0(
#750000
r0.5078125 )
b100000 1
b10000 0
b100000100000 #
b100000100000 -
b100000100000 /
1(
#800000
0(
#850000
r0.50390625 )
b100000010000 #
b100000010000 -
b100000010000 /
b10000 1
b1000 0
1(
#900000
0(
#950000
r0.501953125 )
b1000 1
b100 0
b100000001000 #
b100000001000 -
b100000001000 /
1(
#1000000
0(
#1050000
r0.5009765625 )
b100000000100 #
b100000000100 -
b100000000100 /
b100 1
b10 0
1(
#1100000
0(
#1150000
0.
1"
r0.50048828125 )
b10 1
b1 0
b100000000010 #
b100000000010 -
b100000000010 /
1(
#1200000
0(
#1250000
1.
r0 )
0"
b0 #
b0 -
b0 /
b0 1
b100000000000 0
b100000000010 %
1,
0$
r0.5313952597646587 *
r0.01 +
1(
#1300000
0(
#1350000
r0.5 )
b100000000000 1
b10000000000 0
b100000000000 #
b100000000000 -
b100000000000 /
1(
#1400000
0(
#1450000
0,
1$
r0.75 )
b110000000000 #
b110000000000 -
b110000000000 /
b10000000000 1
b1000000000 0
1(
#1500000
0(
#1550000
r0.625 )
b1000000000 1
b100000000 0
b101000000000 #
b101000000000 -
b101000000000 /
1(
#1600000
0(
#1650000
r0.5625 )
b100100000000 #
b100100000000 -
b100100000000 /
b100000000 1
b10000000 0
1(
#1700000
0(
#1750000
1,
0$
r0.53125 )
b10000000 1
b1000000 0
b100010000000 #
b100010000000 -
b100010000000 /
1(
#1800000
0(
#1850000
0,
1$
r0.546875 )
b100011000000 #
b100011000000 -
b100011000000 /
b1000000 1
b100000 0
1(
#1900000
0(
#1950000
r0.5390625 )
b100000 1
b10000 0
b100010100000 #
b100010100000 -
b100010100000 /
1(
#2000000
0(
#2050000
r0.53515625 )
b100010010000 #
b100010010000 -
b100010010000 /
b10000 1
b1000 0
1(
#2100000
0(
#2150000
r0.533203125 )
b1000 1
b100 0
b100010001000 #
b100010001000 -
b100010001000 /
1(
#2200000
0(
#2250000
r0.5322265625 )
b100010000100 #
b100010000100 -
b100010000100 /
b100 1
b10 0
1(
#2300000
0(
#2350000
0.
1"
r0.53173828125 )
b10 1
b1 0
b100010000010 #
b100010000010 -
b100010000010 /
1(
#2400000
0(
#2450000
1.
r0 )
0"
b0 #
b0 -
b0 /
b0 1
b100000000000 0
b100010000010 %
1,
0$
r0.5626666167821562 *
r0.02 +
1(
#2500000
0(
#2550000
r0.5 )
b100000000000 1
b10000000000 0
b100000000000 #
b100000000000 -
b100000000000 /
1(
#2600000
0(
#2650000
0,
1$
r0.75 )
b110000000000 #
b110000000000 -
b110000000000 /
b10000000000 1
b1000000000 0
1(
#2700000
0(
#2750000
r0.625 )
b1000000000 1
b100000000 0
b101000000000 #
b101000000000 -
b101000000000 /
1(
#2800000
0(
#2850000
1,
0$
r0.5625 )
b100100000000 #
b100100000000 -
b100100000000 /
b100000000 1
b10000000 0
1(
#2900000
0(
#2950000
0,
1$
r0.59375 )
b10000000 1
b1000000 0
b100110000000 #
b100110000000 -
b100110000000 /
1(
#3000000
0(
#3050000
r0.578125 )
b100101000000 #
b100101000000 -
b100101000000 /
b1000000 1
b100000 0
1(
#3100000
0(
#3150000
r0.5703125 )
b100000 1
b10000 0
b100100100000 #
b100100100000 -
b100100100000 /
1(
#3200000
0(
#3250000
r0.56640625 )
b100100010000 #
b100100010000 -
b100100010000 /
b10000 1
b1000 0
1(
#3300000
0(
#3350000
r0.564453125 )
b1000 1
b100 0
b100100001000 #
b100100001000 -
b100100001000 /
1(
#3400000
0(
#3450000
r0.5634765625 )
b100100000100 #
b100100000100 -
b100100000100 /
b100 1
b10 0
1(
#3500000
0(
#3550000
0.
1"
r0.56298828125 )
b10 1
b1 0
b100100000010 #
b100100000010 -
b100100000010 /
1(
#3600000
0(
#3650000
1.
r0 )
0"
b0 #
b0 -
b0 /
b0 1
b100000000000 0
b100100000010 %
1,
0$
r0.5936906572928684 *
r0.03 +
1(
#3700000
0(
#3750000
r0.5 )
b100000000000 1
b10000000000 0
b100000000000 #
b100000000000 -
b100000000000 /
1(
#3800000
0(
#3850000
0,
1$
r0.75 )
b110000000000 #
b110000000000 -
b110000000000 /
b10000000000 1
b1000000000 0
1(
#3900000
0(
#3950000
r0.625 )
b1000000000 1
b100000000 0
b101000000000 #
b101000000000 -
b101000000000 /
1(
#4000000
0(
#4050000
1,
0$
r0.5625 )
b100100000000 #
b100100000000 -
b100100000000 /
b100000000 1
b10000000 0
1(
#4100000
0(
#4150000
0,
1$
r0.59375 )
b10000000 1
b1000000 0
b100110000000 #
b100110000000 -
b100110000000 /
1(
#4200000
0(
#4250000
1,
0$
r0.578125 )
b100101000000 #
b100101000000 -
b100101000000 /
b1000000 1
b100000 0
1(
#4300000
0(
#4350000
r0.5859375 )
b100000 1
b10000 0
b100101100000 #
b100101100000 -
b100101100000 /
1(
#4400000
0(
#4450000
r0.58984375 )
b100101110000 #
b100101110000 -
b100101110000 /
b10000 1
b1000 0
1(
#4500000
0(
#4550000
r0.591796875 )
b1000 1
b100 0
b100101111000 #
b100101111000 -
b100101111000 /
1(
#4600000
0(
#4650000
r0.5927734375 )
b100101111100 #
b100101111100 -
b100101111100 /
b100 1
b10 0
1(
#4700000
0(
#4750000
0.
1"
r0.59326171875 )
b10 1
b1 0
b100101111110 #
b100101111110 -
b100101111110 /
1(
#4800000
0(
#4850000
1.
r0 )
0"
b0 #
b0 -
b0 /
b0 1
b100000000000 0
b100101111110 %
r0.6243449435824354 *
r0.04 +
1(
#4900000
0(
#4950000
r0.5 )
b100000000000 1
b10000000000 0
b100000000000 #
b100000000000 -
b100000000000 /
1(
#5000000
0(
#5050000
0,
1$
r0.75 )
b110000000000 #
b110000000000 -
b110000000000 /
b10000000000 1
b1000000000 0
1(
#5100000
0(
#5150000
r0.625 )
b1000000000 1
b100000000 0
b101000000000 #
b101000000000 -
b101000000000 /
1(
#5200000
0(
#5250000
1,
0$
r0.5625 )
b100100000000 #
b100100000000 -
b100100000000 /
b100000000 1
b10000000 0
1(
#5300000
0(
#5350000
r0.59375 )
b10000000 1
b1000000 0
b100110000000 #
b100110000000 -
b100110000000 /
1(
#5400000
0(
#5450000
r0.609375 )
b100111000000 #
b100111000000 -
b100111000000 /
b1000000 1
b100000 0
1(
#5500000
0(
#5550000
r0.6171875 )
b100000 1
b10000 0
b100111100000 #
b100111100000 -
b100111100000 /
1(
#5600000
0(
#5650000
r0.62109375 )
b100111110000 #
b100111110000 -
b100111110000 /
b10000 1
b1000 0
1(
#5700000
0(
#5750000
r0.623046875 )
b1000 1
b100 0
b100111111000 #
b100111111000 -
b100111111000 /
1(
#5800000
0(
#5850000
r0.6240234375 )
b100111111100 #
b100111111100 -
b100111111100 /
b100 1
b10 0
1(
#5900000
0(
#5950000
0.
0,
1"
1$
r0.62451171875 )
b10 1
b1 0
b100111111110 #
b100111111110 -
b100111111110 /
1(
#6000000
0(
#6050000
1.
r0 )
0"
b0 #
b0 -
b0 /
b0 1
b100000000000 0
b100111111110 %
1,
0$
r0.6545084971874835 *
r0.05 +
1(
#6100000
0(
#6150000
r0.5 )
b100000000000 1
b10000000000 0
b100000000000 #
b100000000000 -
b100000000000 /
1(
#6200000
0(
#6250000
0,
1$
r0.75 )
b110000000000 #
b110000000000 -
b110000000000 /
b10000000000 1
b1000000000 0
1(
#6300000
0(
#6350000
1,
0$
r0.625 )
b1000000000 1
b100000000 0
b101000000000 #
b101000000000 -
b101000000000 /
1(
#6400000
0(
#6450000
0,
1$
r0.6875 )
b101100000000 #
b101100000000 -
b101100000000 /
b100000000 1
b10000000 0
1(
#6500000
0(
#6550000
r0.65625 )
b10000000 1
b1000000 0
b101010000000 #
b101010000000 -
b101010000000 /
1(
#6600000
0(
#6650000
1,
0$
r0.640625 )
b101001000000 #
b101001000000 -
b101001000000 /
b1000000 1
b100000 0
1(
#6700000
0(
#6750000
r0.6484375 )
b100000 1
b10000 0
b101001100000 #
b101001100000 -
b101001100000 /
1(
#6800000
0(
#6850000
r0.65234375 )
b101001110000 #
b101001110000 -
b101001110000 /
b10000 1
b1000 0
1(
#6900000
0(
#6950000
r0.654296875 )
b1000 1
b100 0
b101001111000 #
b101001111000 -
b101001111000 /
1(
#7000000
0(
#7050000
0,
1$
r0.6552734375 )
b101001111100 #
b101001111100 -
b101001111100 /
b100 1
b10 0
1(
#7100000
0(
#7150000
0.
1"
r0.65478515625 )
b10 1
b1 0
b101001111010 #
b101001111010 -
b101001111010 /
1(
#7200000
0(
#7250000
1.
r0 )
0"
b0 #
b0 -
b0 /
b0 1
b100000000000 0
b101001111010 %
1,
0$
r0.6840622763423505 *
r0.06 +
1(
#7300000
0(
#7350000
r0.5 )
b100000000000 1
b10000000000 0
b100000000000 #
b100000000000 -
b100000000000 /
1(
#7400000
0(
#7450000
0,
1$
r0.75 )
b110000000000 #
b110000000000 -
b110000000000 /
b10000000000 1
b1000000000 0
1(
#7500000
0(
#7550000
1,
0$
r0.625 )
b1000000000 1
b100000000 0
b101000000000 #
b101000000000 -
b101000000000 /
1(
#7600000
0(
#7650000
0,
1$
r0.6875 )
b101100000000 #
b101100000000 -
b101100000000 /
b100000000 1
b10000000 0
1(
#7700000
0(
#7750000
1,
0$
r0.65625 )
b10000000 1
b1000000 0
b101010000000 #
b101010000000 -
b101010000000 /
1(
#7800000
0(
#7850000
r0.671875 )
b101011000000 #
b101011000000 -
b101011000000 /
b1000000 1
b100000 0
1(
#7900000
0(
#7950000
r0.6796875 )
b100000 1
b10000 0
b101011100000 #
b101011100000 -
b101011100000 /
1(
#8000000
0(
#8050000
r0.68359375 )
b101011110000 #
b101011110000 -
b101011110000 /
b10000 1
b1000 0
1(
#8100000
0(
#8150000
0,
1$
r0.685546875 )
b1000 1
b100 0
b101011111000 #
b101011111000 -
b101011111000 /
1(
#8200000
0(
#8250000
r0.6845703125 )
b101011110100 #
b101011110100 -
b101011110100 /
b100 1
b10 0
1(
#8300000
0(
#8350000
0.
1"
r0.68408203125 )
b10 1
b1 0
b101011110010 #
b101011110010 -
b101011110010 /
1(
#8400000
0(
#8450000
1.
r0 )
0"
b0 #
b0 -
b0 /
b0 1
b100000000000 0
b101011110010 %
1,
0$
r0.7128896457825494 *
r0.07000000000000001 +
1(
#8500000
0(
#8550000
r0.5 )
b100000000000 1
b10000000000 0
b100000000000 #
b100000000000 -
b100000000000 /
1(
#8600000
0(
#8650000
0,
1$
r0.75 )
b110000000000 #
b110000000000 -
b110000000000 /
b10000000000 1
b1000000000 0
1(
#8700000
0(
#8750000
1,
0$
r0.625 )
b1000000000 1
b100000000 0
b101000000000 #
b101000000000 -
b101000000000 /
1(
#8800000
0(
#8850000
r0.6875 )
b101100000000 #
b101100000000 -
b101100000000 /
b100000000 1
b10000000 0
1(
#8900000
0(
#8950000
0,
1$
r0.71875 )
b10000000 1
b1000000 0
b101110000000 #
b101110000000 -
b101110000000 /
1(
#9000000
0(
#9050000
1,
0$
r0.703125 )
b101101000000 #
b101101000000 -
b101101000000 /
b1000000 1
b100000 0
1(
#9100000
0(
#9150000
r0.7109375 )
b100000 1
b10000 0
b101101100000 #
b101101100000 -
b101101100000 /
1(
#9200000
0(
#9250000
0,
1$
r0.71484375 )
b101101110000 #
b101101110000 -
b101101110000 /
b10000 1
b1000 0
1(
#9300000
0(
#9350000
r0.712890625 )
b1000 1
b100 0
b101101101000 #
b101101101000 -
b101101101000 /
1(
#9400000
0(
#9450000
1,
0$
r0.7119140625 )
b101101100100 #
b101101100100 -
b101101100100 /
b100 1
b10 0
1(
#9500000
0(
#9550000
0.
1"
r0.71240234375 )
b10 1
b1 0
b101101100110 #
b101101100110 -
b101101100110 /
1(
#9600000
0(
#9650000
1.
r0 )
0"
b0 #
b0 -
b0 /
b0 1
b100000000000 0
b101101100110 %
r0.7408768370508722 *
r0.08 +
1(
#9700000
0(
#9750000
r0.5 )
b100000000000 1
b10000000000 0
b100000000000 #
b100000000000 -
b100000000000 /
1(
#9800000
0(
#9850000
0,
1$
r0.75 )
b110000000000 #
b110000000000 -
b110000000000 /
b10000000000 1
b1000000000 0
1(
#9900000
0(
#9950000
1,
0$
r0.625 )
b1000000000 1
b100000000 0
b101000000000 #
b101000000000 -
b101000000000 /
1(
#10000000
0(
#10050000
r0.6875 )
b101100000000 #
b101100000000 -
b101100000000 /
b100000000 1
b10000000 0
1(
#10100000
0(
#10150000
r0.71875 )
b10000000 1
b1000000 0
b101110000000 #
b101110000000 -
b101110000000 /
1(
#10200000
0(
#10250000
r0.734375 )
b101111000000 #
b101111000000 -
b101111000000 /
b1000000 1
b100000 0
1(
#10300000
0(
#10350000
0,
1$
r0.7421875 )
b100000 1
b10000 0
b101111100000 #
b101111100000 -
b101111100000 /
1(
#10400000
0(
#10450000
1,
0$
r0.73828125 )
b101111010000 #
b101111010000 -
b101111010000 /
b10000 1
b1000 0
1(
#10500000
0(
#10550000
r0.740234375 )
b1000 1
b100 0
b101111011000 #
b101111011000 -
b101111011000 /
1(
#10600000
0(
#10650000
0,
1$
r0.7412109375 )
b101111011100 #
b101111011100 -
b101111011100 /
b100 1
b10 0
1(
#10700000
0(
#10750000
0.
1,
1"
0$
r0.74072265625 )
b10 1
b1 0
b101111011010 #
b101111011010 -
b101111011010 /
1(
#10800000
0(
#10850000
1.
r0 )
0"
b0 #
b0 -
b0 /
b0 1
b100000000000 0
b101111011010 %
r0.767913397489514 *
r0.09 +
1(
#10900000
0(
#10950000
r0.5 )
b100000000000 1
b10000000000 0
b100000000000 #
b100000000000 -
b100000000000 /
1(
#11000000
0(
#11050000
r0.75 )
b110000000000 #
b110000000000 -
b110000000000 /
b10000000000 1
b1000000000 0
1(
#11100000
0(
#11150000
0,
1$
r0.875 )
b1000000000 1
b100000000 0
b111000000000 #
b111000000000 -
b111000000000 /
1(
#11200000
0(
#11250000
r0.8125 )
b110100000000 #
b110100000000 -
b110100000000 /
b100000000 1
b10000000 0
1(
#11300000
0(
#11350000
r0.78125 )
b10000000 1
b1000000 0
b110010000000 #
b110010000000 -
b110010000000 /
1(
#11400000
0(
#11450000
1,
0$
r0.765625 )
b110001000000 #
b110001000000 -
b110001000000 /
b1000000 1
b100000 0
1(
#11500000
0(
#11550000
0,
1$
r0.7734375 )
b100000 1
b10000 0
b110001100000 #
b110001100000 -
b110001100000 /
1(
#11600000
0(
#11650000
r0.76953125 )
b110001010000 #
b110001010000 -
b110001010000 /
b10000 1
b1000 0
1(
#11700000
0(
#11750000
1,
0$
r0.767578125 )
b1000 1
b100 0
b110001001000 #
b110001001000 -
b110001001000 /
1(
#11800000
0(
#11850000
0,
1$
r0.7685546875 )
b110001001100 #
b110001001100 -
b110001001100 /
b100 1
b10 0
1(
#11900000
0(
#11950000
0.
1"
r0.76806640625 )
b10 1
b1 0
b110001001010 #
b110001001010 -
b110001001010 /
1(
#12000000
0(
#12050000
1.
r0 )
0"
b0 #
b0 -
b0 /
b0 1
b100000000000 0
b110001001010 %
1,
0$
r0.7938926261462533 *
r0.09999999999999999 +
1(
#12100000
0(
#12150000
r0.5 )
b100000000000 1
b10000000000 0
b100000000000 #
b100000000000 -
b100000000000 /
1(
#12200000
0(
#12250000
r0.75 )
b110000000000 #
b110000000000 -
b110000000000 /
b10000000000 1
b1000000000 0
1(
#12300000
0(
#12350000
0,
1$
r0.875 )
b1000000000 1
b100000000 0
b111000000000 #
b111000000000 -
b111000000000 /
1(
#12400000
0(
#12450000
r0.8125 )
b110100000000 #
b110100000000 -
b110100000000 /
b100000000 1
b10000000 0
1(
#12500000
0(
#12550000
1,
0$
r0.78125 )
b10000000 1
b1000000 0
b110010000000 #
b110010000000 -
b110010000000 /
1(
#12600000
0(
#12650000
0,
1$
r0.796875 )
b110011000000 #
b110011000000 -
b110011000000 /
b1000000 1
b100000 0
1(
#12700000
0(
#12750000
1,
0$
r0.7890625 )
b100000 1
b10000 0
b110010100000 #
b110010100000 -
b110010100000 /
1(
#12800000
0(
#12850000
r0.79296875 )
b110010110000 #
b110010110000 -
b110010110000 /
b10000 1
b1000 0
1(
#12900000
0(
#12950000
0,
1$
r0.794921875 )
b1000 1
b100 0
b110010111000 #
b110010111000 -
b110010111000 /
1(
#13000000
0(
#13050000
r0.7939453125 )
b110010110100 #
b110010110100 -
b110010110100 /
b100 1
b10 0
1(
#13100000
0(
#13150000
0.
1,
1"
0$
r0.79345703125 )
b10 1
b1 0
b110010110010 #
b110010110010 -
b110010110010 /
1(
#13200000
0(
#13250000
1.
r0 )
0"
b0 #
b0 -
b0 /
b0 1
b100000000000 0
b110010110010 %
r0.8187119948743624 *
r0.11 +
1(
#13300000
0(
#13350000
r0.5 )
b100000000000 1
b10000000000 0
b100000000000 #
b100000000000 -
b100000000000 /
1(
#13400000
0(
#13450000
r0.75 )
b110000000000 #
b110000000000 -
b110000000000 /
b10000000000 1
b1000000000 0
1(
#13500000
0(
#13550000
0,
1$
r0.875 )
b1000000000 1
b100000000 0
b111000000000 #
b111000000000 -
b111000000000 /
1(
#13600000
0(
#13650000
1,
0$
r0.8125 )
b110100000000 #
b110100000000 -
b110100000000 /
b100000000 1
b10000000 0
1(
#13700000
0(
#13750000
0,
1$
r0.84375 )
b10000000 1
b1000000 0
b110110000000 #
b110110000000 -
b110110000000 /
1(
#13800000
0(
#13850000
r0.828125 )
b110101000000 #
b110101000000 -
b110101000000 /
b1000000 1
b100000 0
1(
#13900000
0(
#13950000
r0.8203125 )
b100000 1
b10000 0
b110100100000 #
b110100100000 -
b110100100000 /
1(
#14000000
0(
#14050000
1,
0$
r0.81640625 )
b110100010000 #
b110100010000 -
b110100010000 /
b10000 1
b1000 0
1(
#14100000
0(
#14150000
r0.818359375 )
b1000 1
b100 0
b110100011000 #
b110100011000 -
b110100011000 /
1(
#14200000
0(
#14250000
0,
1$
r0.8193359375 )
b110100011100 #
b110100011100 -
b110100011100 /
b100 1
b10 0
1(
#14300000
0(
#14350000
0.
1"
r0.81884765625 )
b10 1
b1 0
b110100011010 #
b110100011010 -
b110100011010 /
1(
#14400000
0(
#14450000
1.
r0 )
0"
b0 #
b0 -
b0 /
b0 1
b100000000000 0
b110100011010 %
1,
0$
r0.8422735529643623 *
r0.12 +
1(
#14500000
0(
#14550000
r0.5 )
b100000000000 1
b10000000000 0
b100000000000 #
b100000000000 -
b100000000000 /
1(
#14600000
0(
#14650000
r0.75 )
b110000000000 #
b110000000000 -
b110000000000 /
b10000000000 1
b1000000000 0
1(
#14700000
0(
#14750000
0,
1$
r0.875 )
b1000000000 1
b100000000 0
b111000000000 #
b111000000000 -
b111000000000 /
1(
#14800000
0(
#14850000
1,
0$
r0.8125 )
b110100000000 #
b110100000000 -
b110100000000 /
b100000000 1
b10000000 0
1(
#14900000
0(
#14950000
0,
1$
r0.84375 )
b10000000 1
b1000000 0
b110110000000 #
b110110000000 -
b110110000000 /
1(
#15000000
0(
#15050000
1,
0$
r0.828125 )
b110101000000 #
b110101000000 -
b110101000000 /
b1000000 1
b100000 0
1(
#15100000
0(
#15150000
r0.8359375 )
b100000 1
b10000 0
b110101100000 #
b110101100000 -
b110101100000 /
1(
#15200000
0(
#15250000
r0.83984375 )
b110101110000 #
b110101110000 -
b110101110000 /
b10000 1
b1000 0
1(
#15300000
0(
#15350000
r0.841796875 )
b1000 1
b100 0
b110101111000 #
b110101111000 -
b110101111000 /
1(
#15400000
0(
#15450000
0,
1$
r0.8427734375 )
b110101111100 #
b110101111100 -
b110101111100 /
b100 1
b10 0
1(
#15500000
0(
#15550000
0.
1"
r0.84228515625 )
b10 1
b1 0
b110101111010 #
b110101111010 -
b110101111010 /
1(
#15600000
0(
#15650000
1.
r0 )
0"
b0 #
b0 -
b0 /
b0 1
b100000000000 0
b110101111010 %
1,
0$
r0.8644843137107241 *
r0.13 +
1(
#15700000
0(
#15750000
r0.5 )
b100000000000 1
b10000000000 0
b100000000000 #
b100000000000 -
b100000000000 /
1(
#15800000
0(
#15850000
r0.75 )
b110000000000 #
b110000000000 -
b110000000000 /
b10000000000 1
b1000000000 0
1(
#15900000
0(
#15950000
0,
1$
r0.875 )
b1000000000 1
b100000000 0
b111000000000 #
b111000000000 -
b111000000000 /
1(
#16000000
0(
#16050000
1,
0$
r0.8125 )
b110100000000 #
b110100000000 -
b110100000000 /
b100000000 1
b10000000 0
1(
#16100000
0(
#16150000
r0.84375 )
b10000000 1
b1000000 0
b110110000000 #
b110110000000 -
b110110000000 /
1(
#16200000
0(
#16250000
r0.859375 )
b110111000000 #
b110111000000 -
b110111000000 /
b1000000 1
b100000 0
1(
#16300000
0(
#16350000
0,
1$
r0.8671875 )
b100000 1
b10000 0
b110111100000 #
b110111100000 -
b110111100000 /
1(
#16400000
0(
#16450000
1,
0$
r0.86328125 )
b110111010000 #
b110111010000 -
b110111010000 /
b10000 1
b1000 0
1(
#16500000
0(
#16550000
0,
1$
r0.865234375 )
b1000 1
b100 0
b110111011000 #
b110111011000 -
b110111011000 /
1(
#16600000
0(
#16650000
1,
0$
r0.8642578125 )
b110111010100 #
b110111010100 -
b110111010100 /
b100 1
b10 0
1(
#16700000
0(
#16750000
0.
0,
1"
1$
r0.86474609375 )
b10 1
b1 0
b110111010110 #
b110111010110 -
b110111010110 /
1(
#16800000
0(
#16850000
1.
r0 )
0"
b0 #
b0 -
b0 /
b0 1
b100000000000 0
b110111010110 %
1,
0$
r0.8852566213879131 *
r0.14 +
1(
#16900000
0(
#16950000
r0.5 )
b100000000000 1
b10000000000 0
b100000000000 #
b100000000000 -
b100000000000 /
1(
#17000000
0(
#17050000
r0.75 )
b110000000000 #
b110000000000 -
b110000000000 /
b10000000000 1
b1000000000 0
1(
#17100000
0(
#17150000
r0.875 )
b1000000000 1
b100000000 0
b111000000000 #
b111000000000 -
b111000000000 /
1(
#17200000
0(
#17250000
0,
1$
r0.9375 )
b111100000000 #
b111100000000 -
b111100000000 /
b100000000 1
b10000000 0
1(
#17300000
0(
#17350000
r0.90625 )
b10000000 1
b1000000 0
b111010000000 #
b111010000000 -
b111010000000 /
1(
#17400000
0(
#17450000
r0.890625 )
b111001000000 #
b111001000000 -
b111001000000 /
b1000000 1
b100000 0
1(
#17500000
0(
#17550000
1,
0$
r0.8828125 )
b100000 1
b10000 0
b111000100000 #
b111000100000 -
b111000100000 /
1(
#17600000
0(
#17650000
0,
1$
r0.88671875 )
b111000110000 #
b111000110000 -
b111000110000 /
b10000 1
b1000 0
1(
#17700000
0(
#17750000
1,
0$
r0.884765625 )
b1000 1
b100 0
b111000101000 #
b111000101000 -
b111000101000 /
1(
#17800000
0(
#17850000
0,
1$
r0.8857421875 )
b111000101100 #
b111000101100 -
b111000101100 /
b100 1
b10 0
1(
#17900000
0(
#17950000
0.
1,
1"
0$
r0.88525390625 )
b10 1
b1 0
b111000101010 #
b111000101010 -
b111000101010 /
1(
#18000000
0(
#18050000
1.
r0 )
0"
b0 #
b0 -
b0 /
b0 1
b100000000000 0
b111000101010 %
r0.9045084971874919 *
r0.15 +
1(
#18100000
0(
#18150000
r0.5 )
b100000000000 1
b10000000000 0
b100000000000 #
b100000000000 -
b100000000000 /
1(
#18200000
0(
#18250000
r0.75 )
b110000000000 #
b110000000000 -
b110000000000 /
b10000000000 1
b1000000000 0
1(
#18300000
0(
#18350000
r0.875 )
b1000000000 1
b100000000 0
b111000000000 #
b111000000000 -
b111000000000 /
1(
#18400000
0(
#18450000
0,
1$
r0.9375 )
b111100000000 #
b111100000000 -
b111100000000 /
b100000000 1
b10000000 0
1(
#18500000
0(
#18550000
r0.90625 )
b10000000 1
b1000000 0
b111010000000 #
b111010000000 -
b111010000000 /
1(
#18600000
0(
#18650000
1,
0$
r0.890625 )
b111001000000 #
b111001000000 -
b111001000000 /
b1000000 1
b100000 0
1(
#18700000
0(
#18750000
r0.8984375 )
b100000 1
b10000 0
b111001100000 #
b111001100000 -
b111001100000 /
1(
#18800000
0(
#18850000
r0.90234375 )
b111001110000 #
b111001110000 -
b111001110000 /
b10000 1
b1000 0
1(
#18900000
0(
#18950000
r0.904296875 )
b1000 1
b100 0
b111001111000 #
b111001111000 -
b111001111000 /
1(
#19000000
0(
#19050000
0,
1$
r0.9052734375 )
b111001111100 #
b111001111100 -
b111001111100 /
b100 1
b10 0
1(
#19100000
0(
#19150000
0.
1"
r0.90478515625 )
b10 1
b1 0
b111001111010 #
b111001111010 -
b111001111010 /
1(
#19200000
0(
#19250000
1.
r0 )
0"
b0 #
b0 -
b0 /
b0 1
b100000000000 0
b111001111010 %
1,
0$
r0.9221639627510253 *
r0.16 +
1(
#19300000
0(
#19350000
r0.5 )
b100000000000 1
b10000000000 0
b100000000000 #
b100000000000 -
b100000000000 /
1(
#19400000
0(
#19450000
r0.75 )
b110000000000 #
b110000000000 -
b110000000000 /
b10000000000 1
b1000000000 0
1(
#19500000
0(
#19550000
r0.875 )
b1000000000 1
b100000000 0
b111000000000 #
b111000000000 -
b111000000000 /
1(
#19600000
0(
#19650000
0,
1$
r0.9375 )
b111100000000 #
b111100000000 -
b111100000000 /
b100000000 1
b10000000 0
1(
#19700000
0(
#19750000
1,
0$
r0.90625 )
b10000000 1
b1000000 0
b111010000000 #
b111010000000 -
b111010000000 /
1(
#19800000
0(
#19850000
r0.921875 )
b111011000000 #
b111011000000 -
b111011000000 /
b1000000 1
b100000 0
1(
#19900000
0(
#19950000
0,
1$
r0.9296875 )
b100000 1
b10000 0
b111011100000 #
b111011100000 -
b111011100000 /
1(
#20000000
0(
#20050000
r0.92578125 )
b111011010000 #
b111011010000 -
b111011010000 /
b10000 1
b1000 0
1(
#20100000
0(
#20150000
r0.923828125 )
b1000 1
b100 0
b111011001000 #
b111011001000 -
b111011001000 /
1(
#20200000
0(
#20250000
r0.9228515625 )
b111011000100 #
b111011000100 -
b111011000100 /
b100 1
b10 0
1(
#20300000
0(
#20350000
0.
1"
r0.92236328125 )
b10 1
b1 0
b111011000010 #
b111011000010 -
b111011000010 /
1(
#20400000
0(
#20450000
1.
r0 )
0"
b0 #
b0 -
b0 /
b0 1
b100000000000 0
b111011000010 %
1,
0$
r0.9381533400219487 *
r0.17 +
1(
#20500000
0(
#20550000
r0.5 )
b100000000000 1
b10000000000 0
b100000000000 #
b100000000000 -
b100000000000 /
1(
#20600000
0(
#20650000
r0.75 )
b110000000000 #
b110000000000 -
b110000000000 /
b10000000000 1
b1000000000 0
1(
#20700000
0(
#20750000
r0.875 )
b1000000000 1
b100000000 0
b111000000000 #
b111000000000 -
b111000000000 /
1(
#20800000
0(
#20850000
r0.9375 )
b111100000000 #
b111100000000 -
b111100000000 /
b100000000 1
b10000000 0
1(
#20900000
0(
#20950000
0,
1$
r0.96875 )
b10000000 1
b1000000 0
b111110000000 #
b111110000000 -
b111110000000 /
1(
#21000000
0(
#21050000
r0.953125 )
b111101000000 #
b111101000000 -
b111101000000 /
b1000000 1
b100000 0
1(
#21100000
0(
#21150000
r0.9453125 )
b100000 1
b10000 0
b111100100000 #
b111100100000 -
b111100100000 /
1(
#21200000
0(
#21250000
r0.94140625 )
b111100010000 #
b111100010000 -
b111100010000 /
b10000 1
b1000 0
1(
#21300000
0(
#21350000
r0.939453125 )
b1000 1
b100 0
b111100001000 #
b111100001000 -
b111100001000 /
1(
#21400000
0(
#21450000
r0.9384765625 )
b111100000100 #
b111100000100 -
b111100000100 /
b100 1
b10 0
1(
#21500000
0(
